Calculation and application of the Species Synanthropy Index: tutorial • SynAnthrop
…
## $speciesScores
## # A tibble: 39 × 5
##    Species                       mean  nRun Index Resolution
##    <chr>                        <dbl> <int> <dbl>      <dbl>
##  1 Alytes obstetricans        0.0293    500     2        100
##  2 Bufo spinosus              0.0578    500     2        100
##  3 Epidalea calamita         -0.447     500    10        100
##  4 Hyla arborea               0.00389   500     3        100
##  5 Ichthyosaura alpestris    -0.0584    500     4        100
##  6 Lissotriton helveticus    -0.108     500     4        100
##  7 Pelodytes punctatus       -0.377     500     9        100
##  8 Pelophylax kl. esculentus -0.0253    500     3        100
##  9 Pelophylax spp.            0.106     500     1        100
## 10 Rana dalmatina            -0.0328    500     3        100
## # ℹ 29 more rows
## 
## $effSizes
## # A tibble: 19,500 × 10
##    .y.   group1 group2    effsize    n1    n2 magnitude Species   Run Resolution
##    <chr> <chr>  <chr>       <dbl> <int> <int> <ord>     <chr>   <int>      <dbl>
##  1 value Null   Observed -0.216     391   391 small     Tritur…     1        100
##  2 value Null   Observed  0.0107   1705  1705 negligib… Salama…     1        100
##  3 value Null   Observed -0.213     949   949 small     Rana t…     1        100
##  4 value Null   Observed -0.00768  1028  1028 negligib… Rana d…     1        100
##  5 value Null   Observed  0.0578   1087  1087 negligib… Peloph…     1        100
##  6 value Null   Observed  0.0152    131   131 negligib… Peloph…     1        100
##  7 value Null   Observed -0.373     121   121 small     Pelody…     1        100
##  8 value Null   Observed -0.161    1205  1205 negligib… Lissot…     1        100
##  9 value Null   Observed -0.0184    234   234 negligib… Ichthy…     1        100
## 10 value Null   Observed -0.0104    693   693 negligib… Hyla a…     1        100
## # ℹ 19,490 more rows
## 
## $samplesList
##        cell simulation             Species variable        x       y Resolution
## 1      5374          1 Triturus marmoratus     Null 154207.6 6833184        100
## 2     12876          1 Triturus marmoratus     Null 254207.6 6741184        100
## 3     12438          1 Triturus marmoratus     Null 350207.6 6747184        100
## 4      2331          1 Triturus marmoratus     Null 224207.6 6871184        100
## 5      6501          1 Triturus marmoratus     Null 140207.6 6819184        100
…
